{"products":[
  {
    "id":0,
    "name":"Product Number 0",
    "image":"//imagens.pontofrio.com.br/Control/ArquivoExibir.aspx?IdArquivo=6829158",
    "oldPrice":345,"price":325,"description":"Product long description number 0 just to make more than one like of text.",
    "installments":{"count":10,"value":32.5}
  },
  {
    "id":1,
    "name":"Product Number 1",
    "image":"//imagens.pontofrio.com.br/Control/ArquivoExibir.aspx?IdArquivo=6124117",
    "oldPrice":399,
    "price":351,
    "description":"Product long description number 1 just to make more than one like of text.",
    "installments":{"count":10,"value":35.1}
  },
  {
    "id":2,
    "name":"Product Number 2",
    "image":"//imagens.pontofrio.com.br/Control/ArquivoExibir.aspx?IdArquivo=6829307",
    "oldPrice":278,
    "price":242,
    "description":"Product long description number 2 just to make more than one like of text.",
    "installments":{"count":10,"value":24.2}
  },
  {
    "id":3,
    "name":"Product Number 3",
    "image":"//imagens.pontofrio.com.br/Control/ArquivoExibir.aspx?IdArquivo=6124117",
    "oldPrice":261,
    "price":250,
    "description":"Product long description number 3 just to make more than one like of text.",
    "installments":{"count":10,"value":25}
  },
  {
    "id":4,
    "name":"Product Number 4",
    "image":"//imagens.pontofrio.com.br/Control/ArquivoExibir.aspx?IdArquivo=6584703",
    "oldPrice":381,
    "price":362,
    "description":"Product long description number 4 just to make more than one like of text.",
    "installments":{"count":10,"value":36.2}
  },
  {
    "id":5,
    "name":"Product Number 5",
    "image":"//imagens.pontofrio.com.br/Control/ArquivoExibir.aspx?IdArquivo=6829307",
    "oldPrice":381,
    "price":355,
    "description":"Product long description number 5 just to make more than one like of text.",
    "installments":{"count":10,"value":35.5}
  },
  {
    "id":6,
    "name":"Product Number 6",
    "image":"//imagens.pontofrio.com.br/Control/ArquivoExibir.aspx?IdArquivo=6829307",
    "oldPrice":175,
    "price":158,
    "description":"Product long description number 6 just to make more than one like of text.",
    "installments":{"count":10,"value":15.8}
  },
  {
    "id":7,
    "name":"Product Number 7",
    "image":"//imagens.pontofrio.com.br/Control/ArquivoExibir.aspx?IdArquivo=6747399",
    "oldPrice":304,
    "price":258,
    "description":"Product long description number 7 just to make more than one like of text.",
    "installments":{"count":10,"value":25.8}
    }
  ],
  "nextPage":"frontend-intern-challenge-api.iurykrieger.now.sh/products?page=2"}